…
# Pivoting Wider, Replacing NA's, sorting columns to standard DND 5e order
Skill_Ability_Final <- Skill_Ability_Sorted %>% 
                        pivot_wider(names_from = Ability, values_from = Roll_Type_Final) %>% 
                        mutate_all(~replace((.), is.na(.), "--")) %>%
                        select(Counter, Strength, Dexterity, Constitution, 
                               Intelligence, Wisdom, Charisma, Other) %>%
                        rbind(c("Total Rolls",735,2792,591,1085,1871,500,5935)) %>% print()
```

```
## # A tibble: 34 × 8
##    Counter Strength    Dexterity Constitution Intelligence Wisdom Charisma Other
##    <chr>   <chr>       <chr>     <chr>        <chr>        <chr>  <chr>    <chr>
##  1 1       Athletics   Acrobati… Concentrati… Alchemy      Anima… Charisma Atta…
##  2 2       Strength    Blacksmi… Constitution Arcana       Insig… Charism… Beard
##  3 3       Strength S… Dexterity Constitutio… History      Medic… Decepti… Coun…
##  4 4       --          Dexterit… --           Intelligence Perce… Disappo… Cutt…
##  5 5       --          Disguise… --           Intelligenc… Survi… Fart.    Dama…
##  6 6       --          Initiati… --           Investigati… Track… Intimid… Deat…
##  7 7       --          Sleight … --           Nature       Wisdom Musical… Dete…
##  8 8       --          Stealth   --           Religion     Wisdo… Perform… Dete…
##  9 9       --          Thieves'… --           --           --     Persuas… Divi…
## 10 10      --          Tinkering --           --           --     --       Fix  
## # ℹ 24 more rows
```
…
