State of the Tea Collection - The Arboreal Repository
…
    State of the Tea Collection

    2024-09-28

## Rows: 64 Columns: 8
## ── Column specification ────────────────────────────────────────────────────────
## Delimiter: ","
## chr  (4): Name, Sub-Category, Category, Distributor
## dbl  (3): Index, Year, Grams
## date (1): Date Logged
## 
## ℹ Use `spec()` to retrieve the full column specification for this data.
## ℹ Specify the column types or set `show_col_types = FALSE` to quiet this message.

## # A tibble: 64 × 8
##    Index `Date Logged`  Year Name      `Sub-Category` Category Distributor Grams
##    <dbl> <date>        <dbl> <chr>     <chr>          <chr>    <chr>       <dbl>
##  1     1 2024-09-28     2018 Fuding G… <NA>           White    Yunnan Sou…    69
##  2     2 2024-09-28     2019 Cha nong… <NA>           White    Yunnan Sou…   250
##  3     3 2024-09-28     2018 Cha nong… <NA>           White    Yunnan Sou…   250
##  4     4 2024-09-28     2020 Cha nong… <NA>           White    Yunnan Sou…   215
##  5     5 2024-09-28     2013 Shun Min… <NA>           White    Yunnan Sou…   300
##  6     6 2024-09-28     2019 Yi Wu Ra… Raw            Pu'ehr   Mei Leaf      350
##  7     7 2024-09-28     2020 Jing Mai… <NA>           White    Mei Leaf      145
##  8     8 2024-09-28     2022 Niuroh Y… Wuyi           Oolong   Old Ways T…   100
##  9     9 2024-09-28     2022 Foshou -… Wuyi           Oolong   Old Ways T…   100
## 10    10 2024-09-28     2019 Imperial… <NA>           Green    Mei Leaf       27
## # ℹ 54 more rows
…
